﻿{
	"youtube": {
		"fileName": "C:\\Program Files (x86)\\Microsoft\\Edge\\Application\\msedge_proxy.exe",
		"arguments": "--start-fullscreen --profile-directory=Default --app-id=agimnkijcaahngcdmfeangaknmldooml"
	},
	"TV": {
		"fileName": "C:\\Program Files (x86)\\Microsoft\\Edge\\Application\\msedge_proxy.exe",
		"arguments": "--start-fullscreen --profile-directory=Default --app-id=plgocepecppejdnojdkbpgednnffomom"
	},
	"facebook": {
		"fileName": "C:\\Program Files (x86)\\Microsoft\\Edge\\Application\\msedge_proxy.exe",
		"arguments": "--start-fullscreen --profile-directory=Default --app-id=celnaknmndcdcjcagffhbhciignkeokb --app-url=https://www.facebook.com/"
	},
	"videoPath": "D:\\Nhac",
	"photoPath": "D:\\Hình Ảnh",
	"$DoNothing",
	"Close",
	"PlayNext$": null,
	"mediaStopOption": "PlayNext",
	"videoWallpaperPath": "D:\\Video gia đình.mp4"
}
